<?xml version="1.0" standalone="no"?>
<!DOCTYPE svg PUBLIC "-//W3C//DTD SVG 1.1//EN" "http://www.w3.org/Graphics/SVG/1.1/DTD/svg11.dtd" >
<svg xmlns="http://www.w3.org/2000/svg">
<metadata>Generated by IcoMoon</metadata>
<defs>
<font id="dealsumm" horiz-adv-x="512">
<font-face units-per-em="512" ascent="480" descent="-32" />
<missing-glyph horiz-adv-x="512" />
<glyph unicode="&#x20;" d="" horiz-adv-x="256" />
<glyph unicode="&#xe2c7;" d="M256 298.333h32v-90l75-45-16-26-91 55v106zM277 405.333q79 0 135.5-56t56.5-136-56.5-136-135.5-56-135 56l30 31q44-44 105-44 62 0 106 43.5t44 105.5-44 105.5-106 43.5-105.5-43.5-43.5-105.5h64l-86-86-2 3-83 83h64q0 80 56.5 136t135.5 56z" />
<glyph unicode="&#xe30c;" d="M363 170.333l106-106-31-32-107 107v16l-6 6q-38-33-90-33-38 0-71 19l32 31q19-8 39-8 40 0 68 28t28 68-28 68-68 28-68-28-28-68h74l-88-85-82 85h53q0 57 41 98t98 41q58 0 98.5-40.5t40.5-98.5q0-51-34-90l6-6h17z" />
<glyph unicode="&#xe600;" d="M432 416l-240-240-112 112-80-80 192-192 320 320z" />
<glyph unicode="&#xe601;" d="M507.331 68.67c-0.002 0.002-0.004 0.004-0.006 0.005l-155.322 155.325 155.322 155.325c0.002 0.002 0.004 0.003 0.006 0.005 1.672 1.673 2.881 3.627 3.656 5.708 2.123 5.688 0.912 12.341-3.662 16.915l-73.373 73.373c-4.574 4.573-11.225 5.783-16.914 3.66-2.080-0.775-4.035-1.984-5.709-3.655 0-0.002-0.002-0.003-0.004-0.005l-155.324-155.326-155.324 155.325c-0.002 0.002-0.003 0.003-0.005 0.005-1.673 1.671-3.627 2.88-5.707 3.655-5.69 2.124-12.341 0.913-16.915-3.66l-73.374-73.374c-4.574-4.574-5.784-11.226-3.661-16.914 0.776-2.080 1.985-4.036 3.656-5.708 0.002-0.001 0.003-0.003 0.005-0.005l155.325-155.324-155.325-155.326c-0.001-0.002-0.003-0.003-0.004-0.005-1.671-1.673-2.88-3.627-3.657-5.707-2.124-5.688-0.913-12.341 3.661-16.915l73.374-73.373c4.575-4.574 11.226-5.784 16.915-3.661 2.080 0.776 4.035 1.985 5.708 3.656 0.001 0.002 0.003 0.003 0.005 0.005l155.324 155.325 155.324-155.325c0.002-0.001 0.004-0.003 0.006-0.004 1.674-1.672 3.627-2.881 5.707-3.657 5.689-2.123 12.342-0.913 16.914 3.661l73.373 73.374c4.574 4.574 5.785 11.227 3.662 16.915-0.776 2.080-1.985 4.034-3.657 5.707z" />
<glyph unicode="&#xe602;" d="M432 416l-240-240-112 112-80-80 192-192 320 320z" />
<glyph unicode="&#xe603;" d="M496.131 44.302l-121.276 103.147c-12.537 11.283-25.945 16.463-36.776 15.963 28.628 33.534 45.921 77.039 45.921 124.588 0 106.039-85.961 192-192 192s-192-85.961-192-192c0-106.039 85.961-192 192-192 47.549 0 91.054 17.293 124.588 45.922-0.5-10.831 4.68-24.239 15.963-36.776l103.147-121.276c17.661-19.623 46.511-21.277 64.11-3.678s15.946 46.449-3.677 64.11zM192 160c-70.692 0-128 57.308-128 128s57.308 128 128 128 128-57.308 128-128-57.307-128-128-128z" />
<glyph unicode="&#xe604;" d="M256 480c-141.385 0-256-114.615-256-256s114.615-256 256-256 256 114.615 256 256-114.615 256-256 256zM208 64l-106 138 47 49 59-75 185 151 23-23-208-240z" />
<glyph unicode="&#xe605;" d="M256 480c-141.385 0-256-114.615-256-256s114.615-256 256-256 256 114.615 256 256-114.615 256-256 256zM384 306.745l-82.744-82.745 82.744-82.744v-45.256h-45.256l-82.744 82.744-82.745-82.744h-45.255v45.256l82.745 82.744-82.745 82.745v45.255h45.255l82.745-82.745 82.744 82.745h45.256v-45.255z" />
<glyph unicode="&#xe606;" d="M496 288h-176v176c0 8.836-7.164 16-16 16h-96c-8.836 0-16-7.164-16-16v-176h-176c-8.836 0-16-7.164-16-16v-96c0-8.836 7.164-16 16-16h176v-176c0-8.836 7.164-16 16-16h96c8.836 0 16 7.164 16 16v176h176c8.836 0 16 7.164 16 16v96c0 8.836-7.164 16-16 16z" />
<glyph unicode="&#xe607;" d="M0 272v-96c0-8.836 7.164-16 16-16h480c8.836 0 16 7.164 16 16v96c0 8.836-7.164 16-16 16h-480c-8.836 0-16-7.164-16-16z" />
<glyph unicode="&#xe608;" d="M380.931-32c56.863 103.016 66.444 260.153-156.931 254.912v-126.912l-192 192 192 192v-124.186c267.481 6.971 297.285-236.107 156.931-387.814z" />
<glyph unicode="&#xe609;" d="M224 480h-224v-512h384v352.032l-160 159.968zM190.688 288v128l128-128h-128z" horiz-adv-x="384" />
<glyph unicode="&#xe60a;" d="M288 355.814v124.186l192-192-192-192v126.912c-223.375 5.241-213.794-151.896-156.93-254.912-140.356 151.707-110.55 394.785 156.93 387.814z" />
<glyph unicode="&#xe60b;" d="M131.070 480c-56.864-103.016-66.445-260.152 156.93-254.912v126.912l192-192-192-192v124.186c-267.48-6.971-297.286 236.107-156.93 387.814z" />
<glyph unicode="&#xe60c;" d="M224 92.186v-124.186l-192 192 192 192v-126.912c223.375-5.24 213.794 151.896 156.931 254.912 140.355-151.707 110.55-394.785-156.931-387.814z" />
<glyph unicode="&#xe60d;" d="M96-32h320l32 352h-384zM320 416v64h-128v-64h-160v-96l32 32h384l32-32v96h-160zM288 416h-64v32h64v-32z" />
<glyph unicode="&#xe60e;" d="M96 448v-384h384v384h-384zM448 96h-320v320h320v-320zM64 32v320l-32 32v-384h384l-32 32zM214.627 137.373l96 96 73.373-73.373v192h-192l73.373-73.373-96-96z" />
<glyph unicode="&#xe60f;" d="M446.059 385.941l-60.117 60.118c-18.669 18.668-55.542 33.941-81.942 33.941h-224c-26.4 0-48-21.6-48-48v-416c0-26.4 21.6-48 48-48h352c26.4 0 48 21.6 48 48v288c0 26.4-15.273 63.273-33.941 81.941zM320 412.219c1.098-0.402 2.226-0.84 3.379-1.318 9.030-3.741 15.299-8.088 17.308-10.097l60.118-60.119c2.009-2.009 6.356-8.277 10.097-17.307 0.478-1.153 0.916-2.281 1.318-3.378h-92.22v92.219zM416 32h-320v384h192v-128h128v-256z" />
<glyph unicode="&#xe610;" d="M446.059 385.941l-60.117 60.118c-18.669 18.668-55.542 33.941-81.942 33.941h-224c-26.4 0-48-21.6-48-48v-416c0-26.4 21.6-48 48-48h352c26.4 0 48 21.6 48 48v288c0 26.4-15.273 63.273-33.941 81.941zM320 412.219c1.098-0.402 2.226-0.84 3.379-1.318 9.030-3.741 15.299-8.088 17.308-10.097l60.118-60.119c2.009-2.009 6.356-8.277 10.097-17.307 0.478-1.153 0.916-2.281 1.318-3.378h-92.22v92.219zM416 32h-320v384h192v-128h128v-256zM128 224h256v-32h-256zM128 160h256v-32h-256zM128 96h256v-32h-256z" />
<glyph unicode="&#xe611;" d="M463.906 480h-144.281c-26.453 0-63.398-15.303-82.102-34.007l-223.495-223.495c-18.704-18.704-18.704-49.312 0-68.016l172.455-172.453c18.704-18.705 49.311-18.705 68.015 0l223.495 223.494c18.704 18.705 34.007 55.651 34.007 82.102v144.281c0 26.452-21.643 48.094-48.094 48.094zM400 320c-26.51 0-48 21.49-48 48s21.49 48 48 48 48-21.49 48-48-21.49-48-48-48z" />
<glyph unicode="&#xe612;" d="M256 384c-111.659 0-208.441-65.021-256-160 47.559-94.979 144.341-160 256-160 111.657 0 208.439 65.021 256 160-47.558 94.979-144.343 160-256 160zM382.225 299.148c30.081-19.187 55.571-44.887 74.717-75.148-19.146-30.261-44.637-55.961-74.718-75.149-37.797-24.108-81.445-36.851-126.224-36.851-44.78 0-88.428 12.743-126.225 36.852-30.080 19.186-55.57 44.886-74.717 75.148 19.146 30.262 44.637 55.962 74.717 75.148 1.959 1.25 3.938 2.461 5.929 3.65-4.979-13.664-7.704-28.411-7.704-43.798 0-70.692 57.308-128 128-128s128 57.308 128 128c0 15.387-2.725 30.134-7.704 43.799 1.99-1.189 3.969-2.401 5.929-3.651zM256 275c0-26.51-21.49-48-48-48s-48 21.49-48 48 21.49 48 48 48 48-21.49 48-48z" />
<glyph unicode="&#xe613;" d="M419.661 331.792c38.822-27.515 70.685-64.546 92.339-107.792-47.561-94.979-144.343-160-256-160-31.283 0-61.396 5.106-89.589 14.542l38.978 38.978c16.529-3.65 33.486-5.52 50.611-5.52 44.779 0 88.427 12.743 126.223 36.852 30.081 19.188 55.572 44.888 74.718 75.149-18.526 29.283-43.007 54.275-71.825 73.247l34.545 34.544zM256 131c-11.362 0-22.376 1.488-32.864 4.267l156.593 156.592c2.781-10.486 4.271-21.497 4.271-32.859 0-70.692-57.308-128-128-128zM480 480h-26.869l-109.806-109.806c-27.538 8.962-56.877 13.806-87.325 13.806-111.659 0-208.441-65.021-256-160 21.329-42.596 52.564-79.154 90.597-106.534l-90.597-90.597v-26.869h26.869l453.131 453.131v26.869zM208 323c24.022 0 43.923-17.647 47.446-40.685l-54.762-54.762c-23.037 3.524-40.684 23.425-40.684 47.447 0 26.51 21.49 48 48 48zM55.058 224c19.146 30.262 44.637 55.962 74.717 75.148 1.959 1.25 3.938 2.461 5.929 3.65-4.979-13.664-7.704-28.411-7.704-43.798 0-29.262 9.825-56.224 26.349-77.781l-29.275-29.275c-28.036 18.821-51.877 43.386-70.016 72.056z" />
<glyph unicode="&#xe614;" d="M512 224l-256 256v-160h-255.999l-0.001-192h256v-160z" />
<glyph unicode="&#xe615;" d="M0 224l256-256v160h255.999l0.001 192h-256v160z" />
<glyph unicode="&#xe616;" d="M512 288h-192l71.765 71.765c-36.265 36.263-84.48 56.235-135.765 56.235s-99.5-19.972-135.765-56.235c-36.263-36.265-56.235-84.48-56.235-135.765s19.972-99.5 56.235-135.765c36.265-36.263 84.48-56.235 135.765-56.235s99.5 19.972 135.764 56.236c3.028 3.027 5.93 6.146 8.728 9.334l48.16-42.141c-46.923-53.583-115.832-87.429-192.652-87.429-141.385 0-256 114.615-256 256s114.615 256 256 256c70.693 0 134.684-28.663 181.008-74.992l74.992 74.992v-192z" />
<glyph unicode="&#xe617;" d="M437.011 405.010c-46.326 46.328-110.318 74.99-181.011 74.99-109.744 0-203.345-69.064-239.749-166.094l59.938-22.477c27.302 72.773 97.503 124.571 179.811 124.571 53.020 0 101.010-21.5 135.753-56.247l-71.753-71.753h192v192l-74.989-74.99zM256 32c-53.020 0-101.013 21.496-135.756 56.244l71.756 71.756h-192v-192l74.997 74.997c46.323-46.331 110.309-74.997 181.003-74.997 109.745 0 203.346 69.064 239.75 166.094l-59.938 22.477c-27.302-72.773-97.503-124.571-179.812-124.571z" />
<glyph unicode="&#xe618;" d="M432 480c44.182 0 80-35.817 80-80 0-18.010-5.955-34.629-16-48l-32-32-112 112 32 32c13.371 10.045 29.989 16 48 16zM32 112l-32-144 144 32 296 296-112 112-296-296zM357.789 298.211l-224-224-27.578 27.578 224 224 27.578-27.578z" />
<glyph unicode="&#xe619;" d="M354.367 213.321c0-7.366-2.625-13.803-7.866-19.333l-138.528-138.305c-5.227-5.241-11.606-7.854-19.111-7.854-7.494 0-13.873 2.614-19.113 7.854l-4.252 4.043c-5.241 5.507-7.866 11.967-7.866 19.333 0 7.505 2.625 13.873 7.866 19.113l127.058 115.149-127.058 114.952c-5.241 5.508-7.866 11.955-7.866 19.331 0 7.495 2.625 13.875 7.866 19.115l4.252 4.030c5.089 5.389 11.466 8.088 19.113 8.088 7.644 0 14.022-2.698 19.111-8.088l138.528-138.306c5.241-5.238 7.866-11.615 7.866-19.123z" />
<glyph unicode="&#xe61a;" d="M157.633 213.321c0-7.366 2.625-13.803 7.866-19.333l138.528-138.305c5.227-5.241 11.606-7.854 19.111-7.854 7.493 0 13.873 2.614 19.113 7.854l4.252 4.043c5.241 5.507 7.866 11.967 7.866 19.333 0 7.505-2.625 13.873-7.866 19.113l-127.058 115.149 127.058 114.952c5.241 5.508 7.866 11.955 7.866 19.331 0 7.495-2.625 13.875-7.866 19.115l-4.252 4.030c-5.089 5.389-11.466 8.088-19.113 8.088-7.644 0-14.021-2.698-19.111-8.088l-138.528-138.306c-5.241-5.238-7.866-11.615-7.866-19.123z" />
<glyph unicode="&#xe61b;" d="M256.012 114.966c7.366 0 13.803 2.625 19.333 7.866l138.305 138.528c5.241 5.227 7.854 11.606 7.854 19.111 0 7.494-2.614 13.873-7.854 19.113l-4.043 4.252c-5.507 5.241-11.967 7.866-19.333 7.866-7.505 0-13.873-2.625-19.113-7.866l-115.149-127.058-114.952 127.058c-5.507 5.241-11.955 7.866-19.331 7.866-7.495 0-13.874-2.625-19.115-7.866l-4.030-4.252c-5.389-5.090-8.088-11.466-8.088-19.114 0-7.644 2.698-14.021 8.088-19.111l138.306-138.528c5.238-5.241 11.614-7.866 19.122-7.866z" />
<glyph unicode="&#xe61c;" d="M256.012 311.7c7.366 0 13.803-2.625 19.333-7.866l138.305-138.528c5.241-5.227 7.854-11.606 7.854-19.111 0-7.493-2.614-13.873-7.854-19.113l-4.043-4.252c-5.507-5.241-11.967-7.866-19.333-7.866-7.505 0-13.873 2.625-19.113 7.866l-115.149 127.059-114.952-127.059c-5.507-5.241-11.955-7.866-19.331-7.866-7.495 0-13.874 2.625-19.115 7.866l-4.030 4.252c-5.389 5.089-8.088 11.466-8.088 19.113 0 7.644 2.698 14.021 8.088 19.111l138.306 138.528c5.238 5.241 11.614 7.866 19.122 7.866z" />
<glyph unicode="&#xe61d;" d="M296 256h-8v96c0 52.935-43.065 96-96 96h-64c-52.935 0-96-43.065-96-96v-96h-8c-13.2 0-24-10.8-24-24v-240c0-13.2 10.8-24 24-24h272c13.2 0 24 10.8 24 24v240c0 13.2-10.8 24-24 24zM192 32h-64l13.92 69.6c-8.404 5.766-13.92 15.437-13.92 26.4 0 17.673 14.327 32 32 32s32-14.327 32-32c0-10.963-5.516-20.634-13.92-26.4l13.92-69.6zM224 256h-128v96c0 17.645 14.355 32 32 32h64c17.645 0 32-14.355 32-32v-96z" />
<glyph unicode="&#xe61e;" d="M384 448h-64c-52.935 0-96-43.065-96-96v-96h-200c-13.2 0-24-10.8-24-24v-240c0-13.2 10.8-24 24-24h272c13.2 0 24 10.8 24 24v240c0 13.2-10.8 24-24 24h-8v96c0 17.645 14.355 32 32 32h64c17.645 0 32-14.355 32-32v-96h64v96c0 52.935-43.065 96-96 96zM192 32h-64l13.92 69.6c-8.404 5.766-13.92 15.437-13.92 26.4 0 17.673 14.327 32 32 32s32-14.327 32-32c0-10.963-5.516-20.634-13.92-26.4l13.92-69.6z" />
<glyph unicode="&#xe61f;" d="M378.88 128v256h51.2l-87.040 102.4-81.92-102.4h46.080v-256h71.68zM163.84-25.6l87.040 102.4h-51.2v256h-71.68v-256h-46.080l81.92-102.4z" />
<glyph unicode="&#xe620;" d="M256 486.4l-117.76-186.88h235.495l-117.735 186.88zM256.026-25.6l117.734 186.88-235.52 0.026 117.785-186.906z" />
<glyph unicode="&#xe621;" d="M352 480c-88.365 0-160-71.634-160-160 0-10.013 0.929-19.808 2.688-29.312l-194.688-194.688v-96c0-17.673 14.327-32 32-32h32v32h64v64h64v64h64l41.521 41.521c17.005-6.158 35.348-9.521 54.479-9.521 88.365 0 160 71.634 160 160s-71.635 160-160 160zM399.937 319.937c-26.51 0-48 21.49-48 48s21.49 48 48 48 48-21.49 48-48-21.49-48-48-48z" />
<glyph unicode="&#xe622;" d="M430.080 0c0 0-249.165 51.2-249.165 275.84h-98.995l165.248 184.96 171.29-184.96h-111.565c0-121.933 10.803-212.275 123.187-275.84z" />
<glyph unicode="&#xe623;" d="M153.6 107.52h256v-51.2l102.4 87.040-102.4 81.92v-46.080h-256v-71.68zM0 322.56l102.4-87.040v51.2h256v71.68h-256v46.080l-102.4-81.92z" />
<glyph unicode="&#xe624;" d="M160 288h64v-64h-64zM256 288h64v-64h-64zM352 288h64v-64h-64zM64 96h64v-64h-64zM160 96h64v-64h-64zM256 96h64v-64h-64zM160 192h64v-64h-64zM256 192h64v-64h-64zM352 192h64v-64h-64zM64 192h64v-64h-64zM416 480v-32h-64v32h-224v-32h-64v32h-64v-512h480v512h-64zM448 0h-416v352h416v-352z" />
<glyph unicode="&#xe625;" d="M179.2 256h-153.6c-14.131 0-25.6-11.469-25.6-25.6s11.469-25.6 25.6-25.6h153.6c14.131 0 25.6 11.469 25.6 25.6s-11.469 25.6-25.6 25.6zM179.2 153.6h-153.6c-14.131 0-25.6-11.443-25.6-25.6s11.469-25.6 25.6-25.6h153.6c14.131 0 25.6 11.443 25.6 25.6s-11.469 25.6-25.6 25.6zM496.64 256h-87.040v87.040c0 14.131-11.443 15.36-25.6 15.36s-25.6-1.229-25.6-15.36v-87.040h-84.48c-14.157 0-15.36-11.469-15.36-25.6s1.229-25.6 15.385-25.6h84.454v-87.040c0-14.131 11.443-15.36 25.6-15.36s25.6 1.229 25.6 15.36v87.040h87.040c14.131 0 15.36 11.469 15.36 25.6s-1.229 25.6-15.36 25.6zM179.2 358.4h-153.6c-14.131 0-25.6-11.469-25.6-25.6s11.469-25.6 25.6-25.6h153.6c14.131 0 25.6 11.469 25.6 25.6s-11.469 25.6-25.6 25.6z" />
<glyph unicode="&#xe626;" d="M451.716 380.285l-71.432 71.431c-15.556 15.556-46.284 28.284-68.284 28.284h-240c-22 0-40-18-40-40v-432c0-22 18-40 40-40h368c22 0 40 18 40 40v304c0 22-12.728 52.729-28.284 68.285zM429.089 357.657c1.565-1.565 3.125-3.487 4.64-5.657h-81.729v81.728c2.17-1.515 4.092-3.075 5.657-4.64l71.432-71.431zM448 8c0-4.336-3.664-8-8-8h-368c-4.336 0-8 3.664-8 8v432c0 4.336 3.664 8 8 8h240c2.416 0 5.127-0.305 8-0.852v-127.148h127.148c0.547-2.873 0.852-5.583 0.852-8v-304z" />
<glyph unicode="&#xe627;" d="M416 0l96 256h-416l-96-256zM64 288l-64-288v416h144l64-64h208v-64z" />
<glyph unicode="&#xe628;" d="M448 480h-448v-512h512v448l-64 64zM256 416h64v-128h-64v128zM448 32h-384v384h32v-160h288v160h37.489l26.511-26.509v-357.491z" />
<glyph unicode="&#xe629;" d="M371.514 288h-67.647l-47.866-70.516-47.87 70.516h-67.644l81.081-121.232-91.487-134.768h131.12v45.788h-30.278l25.078 37.497 55.698-83.285h70.221l-91.488 134.768zM451.716 380.285l-71.432 71.431c-15.556 15.556-46.284 28.284-68.284 28.284h-240c-22 0-40-18-40-40v-432c0-22 18-40 40-40h368c22 0 40 18 40 40v304c0 22-12.728 52.729-28.284 68.285zM429.089 357.657c1.565-1.565 3.125-3.487 4.64-5.657h-81.729v81.728c2.17-1.515 4.092-3.075 5.657-4.64l71.432-71.431zM448 8c0-4.336-3.664-8-8-8h-368c-4.336 0-8 3.664-8 8v432c0 4.336 3.664 8 8 8h240c2.416 0 5.127-0.305 8-0.852v-127.148h127.148c0.547-2.873 0.852-5.583 0.852-8v-304z" />
<glyph unicode="&#xe62a;" d="M0 320h512l-32-320h-448l-32 320zM464 384l16-32h-448l32 64h176l16-32h208z" />
<glyph unicode="&#xe62b;" d="M446.059 385.941l-60.117 60.118c-18.669 18.668-55.542 33.941-81.942 33.941h-224c-26.4 0-48-21.6-48-48v-416c0-26.4 21.6-48 48-48h352c26.4 0 48 21.6 48 48v288c0 26.4-15.273 63.273-33.941 81.941zM320 412.219c1.098-0.402 2.226-0.84 3.379-1.318 9.030-3.741 15.299-8.088 17.308-10.097l60.118-60.119c2.009-2.009 6.356-8.277 10.097-17.307 0.478-1.153 0.916-2.281 1.318-3.378h-92.22v92.219zM416 32h-320v384h192v-128h128v-256zM128 224h256v-32h-256zM128 160h256v-32h-256zM128 96h256v-32h-256z" />
<glyph unicode="&#xe62c;" d="M256 480c-141.385 0-256-114.615-256-256s114.615-256 256-256 256 114.615 256 256-114.615 256-256 256zM329.372 105.372l-105.372 105.373v141.255h64v-114.745l86.628-86.627-45.256-45.256z" />
<glyph unicode="&#xe62d;" d="M480-32h-448c-17.688 0-32 14.312-32 32v448c0 17.688 14.312 32 32 32h448c17.688 0 32-14.312 32-32v-448c0-17.688-14.312-32-32-32zM448 416h-384v-384h384v384zM224 256h-96v96h96v-96zM224 96h-96v96h96v-96zM384 256h-96v96h96v-96zM384 96h-96v96h96v-96z" />
<glyph unicode="&#xe62e;" d="M128 160h256v-64h-256zM128 256h256v-64h-256zM480 480h-448c-17.688 0-32-14.312-32-32v-448c0-17.688 14.312-32 32-32h448c17.688 0 32 14.312 32 32v448c0 17.688-14.312 32-32 32zM448 32h-384v384h384v-384zM128 352h256v-64h-256z" />
<glyph unicode="&#xe62f;" d="M416 352h-96v32l-96 96h-224v-384h192v-128h320v288l-96 96zM416 306.745l50.745-50.745h-50.745v50.745zM224 434.745l50.745-50.745h-50.745v50.745zM32 448h160v-96h96v-224h-256v320zM480 0h-256v96h96v224h64v-96h96v-224z" />
<glyph unicode="&#xe630;" d="M352 416h-64v32c0 17.6-14.4 32-32 32h-64c-17.602 0-32-14.4-32-32v-32h-64v-64h256v64zM256 416h-64v31.943c0.017 0.019 0.036 0.039 0.057 0.057h63.884c0.021-0.018 0.041-0.038 0.059-0.057v-31.943zM416 320v80c0 8.8-7.2 16-16 16h-32v-32h16v-64h-192v-224h-128v288h16v32h-32c-8.801 0-16-7.2-16-16v-320c0-8.8 7.199-16 16-16h144v-96h224l96 96v256h-96zM416 13.255v50.745h50.745l-50.745-50.745zM480 96h-96v-96h-160v288h256v-192z" />
<glyph unicode="&#xe631;" d="M512 480v-192l-69.13 69.13-106-106-53.74 53.74 106 106-69.13 69.13zM122.87 410.87l106-106-53.74-53.74-106 106-69.13-69.13v192h192zM442.87 90.87l69.13 69.13v-192h-192l69.13 69.13-106 106 53.74 53.74zM228.87 143.13l-106-106 69.13-69.13h-192v192l69.13-69.13 106 106z" />
<glyph unicode="&#xe632;" d="M32 192h192v-192l-69.13 69.13-101-101-53.74 53.74 101 101zM410.87 122.87l101-101-53.74-53.74-101 101-69.13-69.13v192h192zM480 256h-192v192l69.13-69.13 101 101 53.74-53.74-101-101zM154.87 378.87l69.13 69.13v-192h-192l69.13 69.13-101 101 53.74 53.74z" />
<glyph unicode="&#xe633;" d="M512 480v-208l-80 80-96-96-48 48 96 96-80 80zM224 144l-96-96 80-80h-208v208l80-80 96 96z" />
<glyph unicode="&#xe634;" d="M224 192v-208l-80 80-96-96-48 48 96 96-80 80zM512 432l-96-96 80-80h-208v208l80-80 96 96z" />
<glyph unicode="&#xe635;" d="M0 480v-512h512v512h-512zM480 0h-448v448h448v-448z" />
<glyph unicode="&#xe636;" d="M463.906 480h-144.281c-26.453 0-63.398-15.303-82.102-34.007l-223.495-223.495c-18.704-18.704-18.704-49.312 0-68.016l172.455-172.453c18.704-18.705 49.311-18.705 68.015 0l223.495 223.494c18.704 18.705 34.007 55.651 34.007 82.102v144.281c0 26.452-21.643 48.094-48.094 48.094zM400 320c-26.51 0-48 21.49-48 48s21.49 48 48 48 48-21.49 48-48-21.49-48-48-48z" />
<glyph unicode="&#xe637;" d="M496 448h-112c-26.4 0-63.273-15.273-81.941-33.941l-188.118-188.118c-18.667-18.667-18.667-49.214 0-67.882l140.118-140.117c18.667-18.668 49.214-18.668 67.882 0l188.117 188.117c18.669 18.668 33.942 55.541 33.942 81.941v112c0 26.4-21.6 48-48 48zM432 288c-26.51 0-48 21.49-48 48s21.49 48 48 48 48-21.49 48-48-21.49-48-48-48zM43.313 180.687l171.189-171.189c-18.132-9.58-41.231-6.769-56.443 8.444l-140.118 140.117c-18.667 18.668-18.667 49.215 0 67.882l188.118 188.118c18.668 18.668 55.541 33.941 81.941 33.941l-244.687-244.686c-6.222-6.223-6.222-16.404 0-22.627z" horiz-adv-x="544" />
<glyph unicode="&#xe638;" d="M288 448c123.712 0 224-100.288 224-224s-100.288-224-224-224v48c47.012 0 91.209 18.307 124.451 51.549s51.549 77.439 51.549 124.451c0 47.011-18.307 91.209-51.549 124.451s-77.439 51.549-124.451 51.549c-47.011 0-91.209-18.307-124.451-51.549-25.57-25.569-42.291-57.623-48.653-92.451h93.104l-112-128-112 128h82.285c15.53 108.551 108.869 192 221.715 192zM384 256v-64h-128v160h64v-96z" />
<glyph unicode="&#xe639;" d="M256 435.149l-133.12-124.928h84.48v-131.072h97.28v131.072h84.505l-133.145 124.928zM495.104 139.673l-81.51 54.835h-50.253l87.040-66.765h-90.752c-2.611 0-4.941-1.331-6.144-3.405l-20.889-57.216h-153.19l-20.915 57.216c-1.152 2.074-3.533 3.405-6.144 3.405h-90.727l87.066 66.765h-50.279l-81.485-54.835c-12.134-7.245-19.379-23.962-16.128-37.094l14.361-78.695c3.251-13.159 17.69-23.936 32.026-23.936h417.613c14.387 0 28.8 10.777 32.051 23.936l14.361 78.695c3.302 13.159-3.968 29.849-16.103 37.094z" />
</font></defs></svg>